<?xml version="1.0" encoding="utf-8"?>
<!-- Generator: Adobe Illustrator 19.1.0, SVG Export Plug-In . SVG Version: 6.00 Build 0)  -->
<svg version="1.1" id="Layer_1" xmlns="http://www.w3.org/2000/svg" xmlns:xlink="http://www.w3.org/1999/xlink" x="0px" y="0px"
	 viewBox="-319.7 378.1 151.4 91.6" style="enable-background:new -319.7 378.1 151.4 91.6;" xml:space="preserve">
<style type="text/css">
	.st0{fill:#FFFFFF;}
	.st1{fill:none;}
	.st2{fill:#FFFFFF;stroke:#5069AF;stroke-width:2;stroke-linecap:round;stroke-linejoin:round;stroke-miterlimit:10;}
</style>
<g>
	<path class="st0" d="M-259.8,414.3h-5.7c-0.6,0-1-0.4-1-1s0.4-1,1-1h5.7c0.6,0,1,0.4,1,1S-259.3,414.3-259.8,414.3z"/>
	<path class="st0" d="M-220.6,467.4L-220.6,467.4c-0.9-0.1-1.6-0.8-1.5-1.6l2.5-37.7c0.1-0.8,0.8-1.4,1.6-1.4
		c0.8,0.1,1.5,0.8,1.4,1.6l-2.5,37.7C-219.1,466.8-219.8,467.4-220.6,467.4z"/>
	<path class="st0" d="M-291.8,467.5c-0.8,0-1.5-0.6-1.5-1.5l-1.1-37.8c0-0.8,0.6-1.5,1.5-1.5c0.8-0.1,1.5,0.6,1.5,1.5l1.1,37.8
		C-290.2,466.8-290.9,467.4-291.8,467.5C-291.7,467.5-291.7,467.5-291.8,467.5z"/>
	<g>
		<path class="st0" d="M-265.5,424.4c-3.3,0-6.1-2.7-6.1-6.1s2.7-6.1,6.1-6.1c3.4,0,6.1,2.7,6.1,6.1S-262.2,424.4-265.5,424.4z
			 M-265.5,414.3c-2.2,0-4.1,1.8-4.1,4.1c0,2.3,1.8,4.1,4.1,4.1c2.3,0,4.1-1.8,4.1-4.1C-261.4,416.1-263.3,414.3-265.5,414.3z"/>
		<g>
			<rect x="-266" y="413.3" class="st0" width="1" height="10.1"/>
			<rect x="-270.6" y="417.9" class="st0" width="10.1" height="1"/>
		</g>
	</g>
	<g>
		<path class="st0" d="M-237.2,449.1L-237.2,449.1c-0.3,0-0.5-0.2-0.6-0.5c-0.1-0.5-0.4-1-0.8-1.3c-0.4-0.3-1-0.4-1.5-0.2
			c-0.2,0.1-0.5,0-0.6-0.2c-0.1-0.2-0.1-0.5,0-0.7c0.3-0.4,0.4-1,0.3-1.5c-0.1-0.5-0.4-1-0.9-1.2c-0.2-0.1-0.3-0.4-0.3-0.6
			c0-0.2,0.2-0.4,0.5-0.5c0.5-0.1,1-0.4,1.3-0.8c0.3-0.4,0.4-1,0.2-1.5c-0.1-0.2,0-0.5,0.2-0.6c0.2-0.1,0.5-0.1,0.7,0
			c0.4,0.3,1,0.4,1.5,0.3c0.5-0.1,1-0.4,1.2-0.9c0.1-0.2,0.4-0.3,0.6-0.3c0.2,0,0.4,0.2,0.5,0.5l0,0c0.1,0.5,0.4,1,0.8,1.3
			c0.4,0.3,1,0.4,1.5,0.2c0.2-0.1,0.5,0,0.6,0.2c0.1,0.2,0.1,0.5,0,0.7c-0.3,0.4-0.4,1-0.3,1.5c0.1,0.5,0.4,1,0.9,1.2
			c0.2,0.1,0.3,0.4,0.3,0.6c0,0.2-0.2,0.4-0.5,0.5c-0.5,0.1-1,0.4-1.3,0.8c-0.3,0.4-0.4,1-0.2,1.5c0.1,0.2,0,0.5-0.2,0.7
			c-0.2,0.1-0.5,0.1-0.7,0c-0.4-0.3-0.9-0.4-1.5-0.3c-0.5,0.1-1,0.4-1.2,0.9C-236.8,449-237,449.1-237.2,449.1z M-239.5,446.1
			c0.5,0,1,0.2,1.5,0.5c0.4,0.3,0.8,0.7,1,1.2c0.4-0.4,0.9-0.6,1.4-0.7c0.5-0.1,1.1-0.1,1.5,0.1c0-0.5,0.2-1,0.5-1.5s0.7-0.8,1.2-1
			c-0.4-0.4-0.6-0.9-0.7-1.4c-0.1-0.5-0.1-1.1,0.1-1.5c-0.5,0-1-0.2-1.5-0.5c-0.5-0.3-0.8-0.7-1-1.2c-0.4,0.4-0.9,0.6-1.4,0.7
			s-1.1,0.1-1.5-0.1c0,0.5-0.2,1-0.5,1.5c-0.3,0.4-0.7,0.8-1.2,1c0.4,0.4,0.6,0.9,0.7,1.4C-239.3,445-239.3,445.6-239.5,446.1z"/>
		<path class="st0" d="M-236.8,446.4l-0.2-0.2c-0.3-0.3-0.7-0.5-1.1-0.7l-0.3-0.1v-0.3c0-0.2,0-0.4-0.1-0.7
			c-0.1-0.3-0.1-0.4-0.2-0.6l-0.1-0.4l0.2-0.2c0.2-0.2,0.3-0.3,0.4-0.5c0.1-0.2,0.2-0.4,0.3-0.6l0.1-0.3h0.3c0.4,0,0.9-0.1,1.3-0.3
			l0.3-0.1l0.2,0.2c0.3,0.3,0.7,0.5,1.1,0.7l0.3,0.1v0.3c0,0.2,0,0.4,0.1,0.7c0,0.2,0.1,0.4,0.2,0.6l0.1,0.3l-0.2,0.2
			c-0.2,0.2-0.3,0.3-0.4,0.5c-0.1,0.2-0.2,0.4-0.3,0.6l0,0.4h-0.3c-0.4,0-0.9,0.1-1.3,0.3L-236.8,446.4z M-237.4,444.6
			c0.3,0.2,0.6,0.4,0.9,0.6c0.3-0.1,0.7-0.2,1-0.2c0.1-0.2,0.2-0.3,0.3-0.5c0.1-0.1,0.2-0.3,0.3-0.4c-0.1-0.2-0.1-0.3-0.1-0.5
			c0-0.2-0.1-0.3-0.1-0.5c-0.3-0.2-0.6-0.4-0.9-0.6c-0.3,0.1-0.7,0.2-1,0.2c-0.1,0.2-0.2,0.3-0.3,0.5c-0.1,0.1-0.2,0.3-0.3,0.4
			c0.1,0.2,0.1,0.3,0.1,0.5C-237.5,444.3-237.4,444.5-237.4,444.6z"/>
		<path class="st0" d="M-238.4,456.5L-238.4,456.5c-0.4-0.1-0.5-0.3-0.5-0.6l3.7-21.1c0-0.3,0.3-0.5,0.6-0.4c0.3,0,0.5,0.3,0.4,0.6
			l-3.7,21.1C-237.9,456.3-238.1,456.5-238.4,456.5z"/>
		<path class="st0" d="M-230.8,445.4L-230.8,445.4l-14.2-2.7c-0.3-0.1-0.5-0.3-0.4-0.6c0.1-0.3,0.3-0.4,0.6-0.4l14.1,2.6
			c0.3,0.1,0.5,0.3,0.4,0.6C-230.3,445.2-230.5,445.4-230.8,445.4z"/>
		<path class="st0" d="M-243.8,449.5c-0.2,0-0.3-0.1-0.4-0.2c-0.2-0.2-0.1-0.5,0.1-0.7l13.3-9.1c0.2-0.2,0.5-0.1,0.7,0.1
			c0.2,0.2,0.1,0.5-0.1,0.7l-13.3,9.1C-243.6,449.4-243.7,449.5-243.8,449.5z"/>
		<path class="st0" d="M-231.1,452c-0.2,0-0.3-0.1-0.4-0.2l-11.3-16.5c-0.2-0.2-0.1-0.5,0.1-0.7c0.2-0.2,0.5-0.1,0.7,0.1l11.3,16.5
			c0.2,0.2,0.1,0.5-0.1,0.7C-230.9,451.9-231,452-231.1,452z"/>
	</g>
	<path class="st0" d="M-276.6,433L-276.6,433l-15.2-0.3c-0.6,0-1-0.5-1-1c0-0.6,0.5-1,1-1l15.2,0.4c0.6,0,1,0.5,1,1
		S-276,433-276.6,433z"/>
	<path class="st0" d="M-286.2,440.5h-6.1c-0.6,0-1-0.4-1-1c0-0.6,0.4-1,1-1h6.1c0.6,0,1,0.4,1,1
		C-285.2,440.1-285.7,440.5-286.2,440.5z"/>
	<path class="st0" d="M-277.2,440.5h-3.8c-0.6,0-1-0.4-1-1c0-0.6,0.4-1,1-1h3.8c0.6,0,1,0.4,1,1
		C-276.2,440.1-276.7,440.5-277.2,440.5z"/>
	<path class="st0" d="M-264,402.2h-12.7c-0.6,0-1-0.4-1-1s0.4-1,1-1h12.7c0.6,0,1,0.4,1,1S-263.5,402.2-264,402.2z"/>
	<path class="st0" d="M-278.6,409.1h-4.9c-0.6,0-1-0.4-1-1c0-0.6,0.4-1,1-1h4.9c0.6,0,1,0.4,1,1
		C-277.6,408.7-278.1,409.1-278.6,409.1z"/>
	<path class="st0" d="M-254,467.3h-17.6v-25.4c0-1.3,1.1-2.4,2.4-2.4h12.8c1.3,0,2.4,1.1,2.4,2.4C-254,441.9-254,467.3-254,467.3z
		 M-269.6,465.3h13.6v-23.4c0-0.2-0.2-0.4-0.4-0.4h-12.8c-0.2,0-0.4,0.2-0.4,0.4V465.3z"/>
	<path class="st0" d="M-219.3,448.1h-11c-0.6,0-1-0.4-1-1c0-0.6,0.4-1,1-1h10.9c0.6,0,1,0.4,1,1
		C-218.4,447.7-218.8,448.1-219.3,448.1z"/>
	<path class="st0" d="M-248,455.8h-6.1c-0.6,0-1-0.4-1-1s0.4-1,1-1h6.1c0.6,0,1,0.4,1,1S-247.4,455.8-248,455.8z"/>
	<path class="st0" d="M-220.7,455h-8.1c-0.6,0-1-0.4-1-1c0-0.6,0.4-1,1-1h8.2c0.6,0,1,0.4,1,1C-219.6,454.6-220.1,455-220.7,455z"/>
	<path class="st0" d="M-220.1,467.8h-71.1c-0.8,0-1.5-0.7-1.5-1.5c0-0.8,0.7-1.5,1.5-1.5h71.1c0.8,0,1.5,0.7,1.5,1.5
		C-218.6,467.1-219.3,467.8-220.1,467.8z"/>
	<path class="st0" d="M-275.5,451.4L-275.5,451.4l-15.3-0.4c-0.6,0-1-0.5-1-1s0.5-0.9,1-1l15.2,0.4c0.6,0,1,0.5,1,1
		C-274.5,451-275,451.4-275.5,451.4z"/>
	<path class="st0" d="M-278.8,458.6h-1.1c-0.6,0-1-0.4-1-1c0-0.6,0.4-1,1-1h1.1c0.6,0,1,0.4,1,1
		C-277.8,458.2-278.3,458.6-278.8,458.6z"/>
	<path class="st0" d="M-271.3,458.6h-3.8c-0.6,0-1-0.4-1-1c0-0.6,0.4-1,1-1h3.8c0.6,0,1,0.4,1,1
		C-270.3,458.2-270.8,458.6-271.3,458.6z"/>
	<path class="st0" d="M-277.7,463.2c-0.1,0-0.1,0-0.2,0l-12.9-2.7c-0.5-0.1-0.9-0.6-0.8-1.2c0.1-0.5,0.6-0.9,1.2-0.8l12.9,2.7
		c0.5,0.1,0.9,0.6,0.8,1.2C-276.8,462.9-277.3,463.2-277.7,463.2z"/>
	<g>
		<g>
			<path class="st0" d="M-242.6,390c-0.2,0-0.3,0-0.5-0.1c-0.3-0.2-0.5-0.5-0.4-0.9c0.1-0.3,0.4-0.6,0.8-0.5h0.2
				c0.4,0,0.6,0.3,0.7,0.7c0,0.4-0.2,0.7-0.6,0.8C-242.4,390-242.5,390-242.6,390z M-242.6,388.5h-0.1l0.1,0.4l0.2-0.4
				C-242.4,388.5-242.5,388.5-242.6,388.5z"/>
			<path class="st0" d="M-227.1,398.6c-0.3,0-0.6-0.2-0.7-0.5c-0.2-0.6-0.8-1-1.6-1.2c-0.7-0.1-1.6,0-2.2,0.8
				c-0.2,0.3-0.6,0.4-0.9,0.2c-0.3-0.1-0.5-0.5-0.4-0.8c0.2-1.1-0.3-1.2-0.5-1.3c-0.7-0.2-1.8,0.3-2.2,1.1c-0.1,0.4-0.5,0.6-0.9,0.4
				c-0.4-0.1-0.6-0.5-0.5-0.9c0.3-1.3,0.2-2.3-0.3-2.7c-0.6-0.4-1.6-0.3-2.3,0.1c-0.3,0.1-0.6,0.1-0.8-0.1s-0.3-0.5-0.3-0.8
				c0.3-1.1,0.2-1.9-0.1-2.4c-0.3-0.4-0.8-0.7-1.7-0.8c-0.4,0-0.6-0.3-0.7-0.7c0-0.4,0.2-0.7,0.6-0.8c0.1-0.1,0.5-0.8,0.4-1.4
				c-0.1-0.4-0.6-0.7-1.4-0.7c-0.3,0-0.6-0.2-0.7-0.5c-0.1-0.3,0-0.6,0.2-0.8c0.8-0.8,1.2-1.5,1.1-2.3c-0.1-0.9-0.8-1.7-1.3-2
				c-0.3-0.2-0.4-0.6-0.3-1c0.2-0.3,0.6-0.5,0.9-0.4c5.3,2.1,6.5,6.6,7.2,9.1c0.2,0.6,0.4,1.3,0.5,1.5c0.2,0.1,0.3,0.1,0.4,0.1
				c0.3-0.1,0.8-0.5,1-1.1c0.2-0.3,0.6-0.5,0.9-0.3c0.4,0.1,0.5,0.5,0.5,0.9c-0.1,0.3,0,0.4,0.1,0.4c0,0,0.2,0,0.5-0.4
				c0.2-0.3,0.6-0.4,0.9-0.3c0.3,0.1,0.5,0.5,0.5,0.8s-0.1,0.5-0.1,0.8c-0.1,0.3-0.1,0.7-0.1,0.9c0.1,0,0.4,0,1-0.2
				c0.4-0.1,0.9-0.3,1.5-0.4c3-1,7.1-2.3,10.4,0.4c0.3,0.2,0.3,0.6,0.2,0.9c-0.1,0.3-0.4,0.5-0.8,0.5c-1-0.1-2.1,0.3-2.8,1.1
				c-0.5,0.5-0.7,1-0.7,1.6c0,0.3-0.1,0.6-0.4,0.7s-0.6,0.1-0.8-0.1c-0.6-0.4-1.3-0.2-1.5,0c-0.6,0.3-1.1,0.9-1.1,1.5
				c0,0.4-0.3,0.7-0.6,0.8C-227,398.6-227,398.6-227.1,398.6z M-229.8,395.4c0.2,0,0.5,0,0.7,0.1c0.7,0.1,1.3,0.4,1.8,0.8
				c0.3-0.5,0.8-1,1.4-1.3c0.7-0.3,1.4-0.4,2-0.3c0.2-0.6,0.5-1.1,1-1.6s1.1-0.8,1.7-1.1c-2.4-0.8-5,0.1-7.3,0.8
				c-0.6,0.2-1.1,0.3-1.5,0.5c-0.9,0.2-1.8,0.4-2.4-0.1c-0.4-0.4-0.5-0.9-0.4-1.5c-0.3,0-0.5,0-0.7-0.1c-0.2-0.1-0.4-0.2-0.5-0.4
				c-0.3,0.2-0.6,0.4-1,0.5c-0.6,0.1-1.1,0-1.7-0.3c-0.5-0.4-0.8-1.1-1.1-2.3c-0.5-1.8-1.3-4.6-3.8-6.6c0,0.1,0,0.2,0,0.3
				c0.1,0.6-0.1,1.5-0.7,2.5c1.2,0.5,1.4,1.4,1.5,1.9c0.1,0.6-0.1,1.1-0.3,1.7c0.6,0.2,1.1,0.6,1.4,1.1c0.4,0.6,0.6,1.3,0.6,2.3
				c0.9-0.2,1.9-0.1,2.7,0.5c0.5,0.4,1,1,1.1,2.1c0.7-0.4,1.6-0.5,2.3-0.3c0.6,0.2,1.2,0.6,1.5,1.4
				C-231,395.5-230.4,395.4-229.8,395.4z"/>
		</g>
	</g>
	<path class="st0" d="M-208.9,433.8c-0.2,0-0.4,0-0.6-0.1l-31.2-14c-0.8-0.3-1.1-1.2-0.8-2c0.3-0.8,1.2-1.1,2-0.8l31.2,13.9
		c0.8,0.3,1.1,1.2,0.8,2C-207.8,433.4-208.3,433.8-208.9,433.8z"/>
	<path class="st0" d="M-241.7,425.9L-241.7,425.9c-0.9-0.1-1.5-0.8-1.5-1.6l1.2-16.9c0.1-0.8,0.8-1.5,1.6-1.4
		c0.8,0.1,1.4,0.8,1.4,1.6l-1.2,16.9C-240.3,425.3-241,425.9-241.7,425.9z"/>
	<path class="st0" d="M-297.3,431.2c-0.5,0-1-0.3-1.3-0.7c-0.4-0.7-0.2-1.6,0.5-2.1l9.7-5.7c0.5-0.3,1-0.3,1.5,0
		c0.5,0.3,0.8,0.8,0.8,1.3v3.6c0,0.8-0.7,1.5-1.5,1.5c-0.8,0-1.5-0.7-1.5-1.5v-1l-7.4,4.3C-296.8,431.1-297.1,431.2-297.3,431.2z"/>
	<path class="st0" d="M-287.6,427.3c-0.8,0-1.4-0.6-1.5-1.4l-1.5-17.8c-0.1-0.8,0.5-1.6,1.4-1.6c0.8-0.1,1.6,0.5,1.6,1.4l1.5,17.8
		C-286,426.5-286.6,427.3-287.6,427.3C-287.6,427.3-287.6,427.3-287.6,427.3z"/>
	<path class="st0" d="M-231.9,413.3c-0.3,0-0.5-0.1-0.8-0.2l-31.4-18.6l-31.3,18.5c-0.7,0.4-1.6,0.2-2.1-0.5
		c-0.4-0.7-0.2-1.6,0.5-2.1l32.1-18.9c0.5-0.3,1.1-0.3,1.5,0l32.2,19c0.7,0.4,1,1.3,0.5,2.1C-230.9,413-231.4,413.3-231.9,413.3z"/>
	<path class="st0" d="M-229.9,458.1h-15.6v-22.7c0-1.3,1.1-2.4,2.4-2.4h10.8c1.3,0,2.4,1.1,2.4,2.4V458.1z M-243.5,456.1h11.6v-20.7
		c0-0.2-0.2-0.4-0.4-0.4h-10.8c-0.2,0-0.4,0.2-0.4,0.4C-243.5,435.4-243.5,456.1-243.5,456.1z"/>
	<g>
		<path class="st0" d="M-212.3,462.5h-8.3l-13.5-0.3c-0.6,0-1-0.5-1-1c0-0.6,0.5-1,1-1l13.5,0.3h8.3c0.6,0,1,0.4,1,1
			C-211.3,462.1-211.8,462.5-212.3,462.5z"/>
		<g>
			<line class="st1" x1="-217.2" y1="453.7" x2="-172.7" y2="453.7"/>
			<path class="st0" d="M-172.7,454.7h-44.5c-0.6,0-1-0.4-1-1s0.4-1,1-1h44.6c0.6,0,1,0.4,1,1S-172.1,454.7-172.7,454.7z"/>
		</g>
		<g>
			<line class="st1" x1="-176.7" y1="448.1" x2="-176.7" y2="462.3"/>
			<path class="st0" d="M-176.7,463.3c-0.6,0-1-0.4-1-1v-14.2c0-0.6,0.4-1,1-1c0.6,0,1,0.4,1,1v14.2
				C-175.7,462.9-176.2,463.3-176.7,463.3z"/>
		</g>
		<g>
			<line class="st1" x1="-173.8" y1="458.3" x2="-187.9" y2="458.3"/>
			<path class="st0" d="M-173.8,459.3h-14.1c-0.6,0-1-0.4-1-1s0.4-1,1-1h14.1c0.6,0,1,0.4,1,1S-173.2,459.3-173.8,459.3z"/>
		</g>
		<g>
			<line class="st1" x1="-187.3" y1="449.5" x2="-183.8" y2="465.4"/>
			<path class="st0" d="M-183.8,466.4c-0.5,0-0.9-0.3-1-0.8l-3.5-16c-0.1-0.5,0.2-1.1,0.8-1.2c0.5-0.1,1.1,0.2,1.2,0.8l3.5,16
				c0.1,0.5-0.2,1.1-0.8,1.2C-183.6,466.4-183.7,466.4-183.8,466.4z"/>
		</g>
		<g>
			<line class="st1" x1="-193.2" y1="449.5" x2="-195.3" y2="466.9"/>
			<path class="st0" d="M-195.3,467.9h-0.1c-0.5-0.1-0.9-0.6-0.9-1.1l2.1-17.4c0.1-0.5,0.6-0.9,1.1-0.9c0.5,0.1,0.9,0.6,0.9,1.1
				l-2.1,17.4C-194.4,467.5-194.8,467.9-195.3,467.9z"/>
		</g>
		<g>
			<path class="st0" d="M-193.2,462.3c-1.5-0.3-15.4-4-15.4-4"/>
			<path class="st0" d="M-193.2,463.3c-0.1,0-0.1,0-0.2,0c-1.6-0.3-14.9-3.8-15.4-4c-0.5-0.1-0.9-0.7-0.7-1.2
				c0.1-0.5,0.7-0.9,1.2-0.7c3.8,1,14.1,3.7,15.3,3.9c0.5,0.1,0.9,0.6,0.8,1.2C-192.3,463-192.7,463.3-193.2,463.3z"/>
		</g>
		<g>
			<line class="st1" x1="-204.4" y1="449.5" x2="-204.4" y2="465.7"/>
			<path class="st0" d="M-204.4,466.7c-0.6,0-1-0.4-1-1v-16.2c0-0.6,0.4-1,1-1c0.6,0,1,0.4,1,1v16.3
				C-203.4,466.3-203.8,466.7-204.4,466.7z"/>
		</g>
		<path class="st0" d="M-215.9,467.9c-0.1,0-0.1,0-0.2,0c-0.5-0.1-0.9-0.6-0.8-1.1l2.7-17.4c0.1-0.5,0.6-0.9,1.1-0.8
			s0.9,0.6,0.8,1.1l-2.7,17.4C-215,467.5-215.4,467.9-215.9,467.9z"/>
	</g>
	<path class="st0" d="M-296.3,460.5h-6.8l-11.1-0.4c-0.6,0-1-0.5-1-1c0-0.6,0.5-1,1-1l11,0.4h6.8c0.6,0,1,0.4,1,1
		C-295.4,460.1-295.8,460.5-296.3,460.5z"/>
	<g>
		<line class="st1" x1="-317.7" y1="450.3" x2="-290.7" y2="450.3"/>
		<path class="st0" d="M-290.7,451.3h-27c-0.6,0-1-0.4-1-1s0.4-1,1-1h27c0.6,0,1,0.4,1,1S-290.1,451.3-290.7,451.3z"/>
	</g>
	<g>
		<line class="st1" x1="-297.5" y1="449.9" x2="-297.5" y2="460.4"/>
		<path class="st0" d="M-297.5,461.4c-0.6,0-1-0.4-1-1v-10.5c0-0.6,0.4-1,1-1s1,0.4,1,1v10.6C-296.5,461-297,461.4-297.5,461.4z"/>
	</g>
	<g>
		<line class="st1" x1="-294.2" y1="455.8" x2="-310.1" y2="455.8"/>
		<path class="st0" d="M-294.2,456.8h-15.9c-0.6,0-1-0.4-1-1s0.4-1,1-1h15.9c0.6,0,1,0.4,1,1S-293.6,456.8-294.2,456.8z"/>
	</g>
	<g>
		<line class="st1" x1="-304.5" y1="449.3" x2="-306.9" y2="465.9"/>
		<path class="st0" d="M-306.9,466.9h-0.1c-0.5-0.1-0.9-0.6-0.8-1.1l2.4-16.5c0.1-0.5,0.6-0.9,1.1-0.8c0.5,0.1,0.9,0.6,0.8,1.1
			l-2.4,16.5C-305.9,466.5-306.4,466.9-306.9,466.9z"/>
	</g>
	<path class="st0" d="M-226.1,440.6L-226.1,440.6l-4.8-0.1c-0.6,0-1-0.5-1-1s0.5-1,1-1l0,0l4.7,0.1c0.6,0,1,0.5,1,1
		C-225.1,440.2-225.6,440.6-226.1,440.6z"/>
	<path class="st0" d="M-219,442.7L-219,442.7l-3.6-0.1c-0.6,0-1-0.5-1-1c0-0.6,0.4-1,1-1l3.6,0.1c0.6,0,1,0.5,1,1
		S-218.4,442.7-219,442.7z"/>
	<path class="st0" d="M-271.7,434.9c-0.5,0-1-0.4-1-1c0-0.6,0.4-1,1-1l23.7-0.5c0.6,0,1,0.4,1,1c0,0.6-0.4,1-1,1L-271.7,434.9
		C-271.6,434.9-271.6,434.9-271.7,434.9z"/>
	<path class="st0" d="M-224.3,430.9L-224.3,430.9l-36.2-0.9c-0.6,0-1-0.5-1-1c0-0.6,0.5-1,1-1l36.2,0.9c0.6,0,1,0.5,1,1
		C-223.3,430.5-223.7,430.9-224.3,430.9z"/>
	<path class="st0" d="M-252.7,446.3h-1.5c-0.6,0-1-0.4-1-1s0.4-1,1-1h1.5c0.6,0,1,0.4,1,1S-252.2,446.3-252.7,446.3z"/>
	<path class="st0" d="M-253.5,423.2h-8.7c-0.6,0-1-0.4-1-1s0.4-1,1-1h8.7c0.6,0,1,0.4,1,1S-252.9,423.2-253.5,423.2z"/>
	<path class="st0" d="M-271.2,419.4h-4.4c-0.6,0-1-0.4-1-1c0-0.6,0.4-1,1-1h4.4c0.6,0,1,0.4,1,1C-270.2,419-270.6,419.4-271.2,419.4
		z"/>
	<path class="st0" d="M-242.4,417.7h-13.3c-0.6,0-1-0.4-1-1s0.4-1,1-1h13.2c0.6,0,1,0.4,1,1S-241.9,417.7-242.4,417.7z"/>
	<path class="st0" d="M-281.2,425.1h-6.1c-0.6,0-1-0.4-1-1c0-0.6,0.4-1,1-1h6.1c0.6,0,1,0.4,1,1
		C-280.2,424.7-280.6,425.1-281.2,425.1z"/>
	<path class="st0" d="M-270.3,427.9h-6.1c-0.6,0-1-0.4-1-1c0-0.6,0.4-1,1-1h6.1c0.6,0,1,0.4,1,1
		C-269.3,427.5-269.8,427.9-270.3,427.9z"/>
	<path class="st0" d="M-241.2,409.1h-29.4c-0.6,0-1-0.4-1-1c0-0.6,0.4-1,1-1h29.3c0.6,0,1,0.4,1,1
		C-240.3,408.7-240.7,409.1-241.2,409.1z"/>
	<path class="st0" d="M-243.5,463.2h-4.4c-0.6,0-1-0.4-1-1s0.4-1,1-1h4.4c0.6,0,1,0.4,1,1S-242.9,463.2-243.5,463.2z"/>
	<g>
		<path class="st0" d="M-204.4,465.9c-0.1,0-0.1,0-0.2,0c-0.8-0.1-1.4-0.9-1.3-1.7l2.5-20l-1.4-12.6c0-0.3,0-0.7,0.2-1l6.9-11.1
			c0.2-0.2,0.4-0.4,0.6-0.6l6.4-3.1c0.3-0.1,0.5-0.2,0.8-0.1l6.3,0.8l12.1-5c0.8-0.3,1.6,0,2,0.8c0.3,0.8,0,1.6-0.8,2l-12.5,5.2
			c-0.2,0.1-0.5,0.1-0.8,0.1l-6.1-0.8l-5.6,2.7l-6.4,10.3l1.3,12.2c0,0.1,0,0.2,0,0.3l-2.5,20.2
			C-203.1,465.3-203.7,465.9-204.4,465.9z"/>
		<path class="st0" d="M-202.2,443c-0.1,0-0.3,0-0.4-0.1l-8.2-3.9h-3.4c-0.4,0-0.7-0.2-0.9-0.6l-5.1-10.3c-0.2-0.5,0-1.1,0.4-1.3
			c0.5-0.2,1.1,0,1.3,0.4l4.9,9.7h3c0.1,0,0.3,0,0.4,0.1l8.4,3.9c0.5,0.2,0.7,0.8,0.5,1.3C-201.4,442.8-201.8,443-202.2,443z"/>
		<path class="st0" d="M-202.5,430.9c-0.2,0-0.3,0-0.5-0.1l-9.4-5.4c-0.3-0.2-0.4-0.4-0.5-0.7l-3.7-25.3c-0.1-0.5,0.3-1.1,0.8-1.1
			c0.5-0.1,1.1,0.3,1.1,0.8l3.6,24.8l9,5.2c0.5,0.3,0.6,0.9,0.4,1.4C-201.8,430.7-202.2,430.9-202.5,430.9z"/>
		<path class="st2" d="M-210.3,405"/>
		<path class="st0" d="M-213,413.5c-0.1,0-0.2,0-0.3-0.1c-0.5-0.2-0.8-0.8-0.6-1.3l2.8-7.5c0.2-0.5,0.8-0.8,1.3-0.6
			c0.5,0.2,0.8,0.8,0.6,1.3l-2.9,7.5C-212.2,413.2-212.6,413.5-213,413.5z"/>
		<path class="st0" d="M-213.2,423.1c-0.1,0-0.3,0-0.4-0.1l-8.5-3.9c-0.3-0.2-0.6-0.5-0.6-0.8l-0.7-8.9c0-0.6,0.4-1,0.9-1.1
			c0.5,0,1,0.4,1.1,0.9l0.6,8.3l8,3.6c0.5,0.2,0.7,0.8,0.5,1.3C-212.4,422.9-212.8,423.1-213.2,423.1z"/>
		<path class="st0" d="M-200.8,428.6c-0.4,0-0.7-0.2-0.9-0.6l-6.1-12.5c-0.2-0.3-0.1-0.7,0.1-1l3.6-5.3c0.3-0.5,0.9-0.6,1.4-0.3
			c0.5,0.3,0.6,0.9,0.3,1.4l-3.3,4.9l5.8,12c0.2,0.5,0,1.1-0.5,1.3C-200.5,428.6-200.7,428.6-200.8,428.6z"/>
		<path class="st0" d="M-201.9,437.4c-0.3,0-0.6-0.1-0.8-0.4c-0.3-0.5-0.2-1.1,0.2-1.4l5.7-4c0.2-0.1,0.4-0.2,0.6-0.2l6,0.5l3.8-6.8
			c0.3-0.5,0.9-0.6,1.4-0.4c0.5,0.3,0.6,0.9,0.4,1.4l-4.2,7.4c-0.2,0.3-0.6,0.5-0.9,0.5l-6.2-0.5l-5.4,3.8
			C-201.5,437.4-201.7,437.4-201.9,437.4z"/>
		<path class="st0" d="M-186.4,418.2c-0.2,0-0.4-0.1-0.6-0.2c-0.4-0.4-0.5-1-0.1-1.4l3-3.6l-1.5-7.8c-0.1-0.5,0.3-1.1,0.8-1.2
			c0.5-0.1,1.1,0.3,1.2,0.8l1.6,8.2c0.1,0.3,0,0.6-0.2,0.8l-3.3,4C-185.8,418-186.1,418.2-186.4,418.2z"/>
		<path class="st0" d="M-183.1,414.2c-0.4,0-0.8-0.2-0.9-0.6c-0.2-0.5,0.1-1.1,0.6-1.3l9-3.4c0.5-0.2,1.1,0.1,1.3,0.6
			c0.2,0.5-0.1,1.1-0.6,1.3l-9,3.4C-182.8,414.1-183,414.2-183.1,414.2z"/>
		<path class="st0" d="M-195.8,419.8c-0.1,0-0.2,0-0.3,0c-0.5-0.2-0.8-0.7-0.7-1.2l1.5-5.1l-2.7-8.7c-0.1-0.2-0.1-0.4,0-0.6l1.4-4.1
			c0.2-0.5,0.7-0.8,1.3-0.6c0.5,0.2,0.8,0.7,0.6,1.3l-1.3,3.8l2.7,8.7c0.1,0.2,0.1,0.4,0,0.6l-1.6,5.4
			C-195,419.6-195.4,419.8-195.8,419.8z"/>
	</g>
</g>
</svg>
